{
  "AL": "Dac",
  "AM": "Katu",
  "AT": "Muschi",
  "BG": "Котка",
  "BR": "Gato",
  "BY": "Кот",
  "CH": "Büsi",
  "CN": "猫",
  "CZ": "Kočička",
  "DE": "Kätzchen",
  "DK": "Kat",
  "EE": "Kiisu",
  "ES": "Gato",
  "FI": "Mirri",
  "FO": "Ketta",
  "FR": "Chat",
  "GR": "Γάτος",
  "HR": "Mačka",
  "HU": "Macska",
  "IT": "Gatto",
  "JP": "ねこ",
  "KR": "고양이",
  "KZ": "Мысық",
  "LT": "Katė",
  "LV": "Kaķis",
  "MA": "Mušš",
  "MK": "Мачка",
  "NL": "Kat",
  "NO": "Katt",
  "PH": "Pusa",
  "PL": "Kotek",
  "PT": "Gato",
  "RS": "Мачка",
  "RU": "Кот",
  "SE": "Kisse",
  "SI": "Mačka",
  "SK": "Mačka",
  "TH": "แมว",
  "TR": "Kedi",
  "UA": "Кiт"
}